{
    "swagger": "2.0",
    "info": {
        "description": "Some exam 02",
        "version": "2.0",
        "title": "Some exam 02",
        "termsOfService": "http://www-03.ibm.com/software/sla/sladb.nsf/sla/bm?Open",
        "contact": {
            "name": "Francisco Guimarães",
            "email": "francisco.cpg@gmail.com"
        },
        "license": {
            "name": "Apache License Version 2.0",
            "url": "https://github.com/IBM-Bluemix/news-aggregator/blob/master/LICENSE"
        }
    },
    "basePath": "/",
    "tags": [
        {
            "name": "endereco-controller",
            "description": "Endereco Controller"
        }
    ],
    "paths": {
        "/endereco/{id}": {
            "get": {
                "tags": [
                    "endereco-controller"
                ],
                "summary": "Localiza um endereço por id",
                "operationId": "findEndereco",
                "consumes": [
                    "application/json;charset=UTF-8"
                ],
                "produces": [
                    "application/json;charset=UTF-8"
                ],
                "parameters": [
                    {
                        "name": "id",
                        "in": "path",
                        "description": "Id do endereço",
                        "required": true,
                        "type": "integer",
                        "format": "int32"
                    }
                ],
                "responses": {
                    "200": {
                        "description": "Sucesso",
                        "schema": {
                            "$ref": "#/definitions/Endereco"
                        }
                    },
                    "404": {
                        "description": "Endereço não encontrado"
                    }
                }
            },
            "put": {
                "tags": [
                    "endereco-controller"
                ],
                "summary": "Atualiza um endereço por id",
                "operationId": "updateEndereco",
                "consumes": [
                    "application/json;charset=UTF-8"
                ],
                "produces": [
                    "application/json;charset=UTF-8"
                ],
                "parameters": [
                    {
                        "name": "id",
                        "in": "path",
                        "description": "Id do endereço",
                        "required": true,
                        "type": "integer",
                        "format": "int32"
                    },
                    {
                        "in": "body",
                        "name": "request",
                        "description": "Endereço a ser atualizado",
                        "required": true,
                        "schema": {
                            "$ref": "#/definitions/EnderecoCreate"
                        }
                    }
                ],
                "responses": {
                    "200": {
                        "description": "Sucesso",
                        "schema": {
                            "$ref": "#/definitions/Endereco"
                        }
                    },
                    "400": {
                        "description": "Problemas na requisição. Verifique o corpo da resposta"
                    },
                    "404": {
                        "description": "Endereço ou cep não encontrado. Verique as mensagens"
                    }
                }
            },
            "delete": {
                "tags": [
                    "endereco-controller"
                ],
                "summary": "Exclui um endereço por id",
                "operationId": "deleteEndereco",
                "consumes": [
                    "application/json;charset=UTF-8"
                ],
                "produces": [
                    "application/json;charset=UTF-8"
                ],
                "parameters": [
                    {
                        "name": "id",
                        "in": "path",
                        "description": "Id do endereço",
                        "required": true,
                        "type": "integer",
                        "format": "int32"
                    }
                ],
                "responses": {
                    "204": {
                        "description": "Sucesso"
                    },
                    "404": {
                        "description": "Endereço não encontrado. Verique as mensagens"
                    }
                }
            }
        },
        "/endereco": {
            "post": {
                "tags": [
                    "endereco-controller"
                ],
                "summary": "Cria um endereço",
                "operationId": "createEndereco",
                "consumes": [
                    "application/json;charset=UTF-8"
                ],
                "produces": [
                    "application/json;charset=UTF-8"
                ],
                "parameters": [
                    {
                        "in": "body",
                        "name": "endereco",
                        "description": "Endereço a ser criado",
                        "required": true,
                        "schema": {
                            "$ref": "#/definitions/EnderecoCreate"
                        }
                    }
                ],
                "responses": {
                    "201": {
                        "description": "Criado com sucesso",
                        "schema": {
                            "$ref": "#/definitions/Endereco"
                        }
                    },
                    "400": {
                        "description": "Problemas na requisição. Verifique o corpo da resposta"
                    },
                    "404": {
                        "description": "Cep não encontrado"
                    }
                }
            }
        }
    },
    "definitions": {
        "CEPRequest": {
            "type": "object",
            "required": [
                "CEP"
            ],
            "properties": {
                "CEP": {
                    "type": "string",
                    "example": "03113010",
                    "description": "O CEP a ser localizado"
                }
            }
        },
        "Endereco": {
            "type": "object",
            "required": [
                "id",
                "rua",
                "numero",
                "cep",
                "cidade",
                "estado"
            ],
            "properties": {
                "id": {
                    "type": "integer",
                    "format": "int32",
                    "example": "193"
                },
                "rua": {
                    "type": "string",
                    "example": "av dos testes"
                },
                "numero": {
                    "type": "string",
                    "example": "151"
                },
                "complemento": {
                    "type": "string",
                    "example": "AP 21"
                },
                "bairro": {
                    "type": "string",
                    "example": "vela"
                },
                "cep": {
                    "type": "string",
                    "example": "01331010"
                },
                "cidade": {
                    "type": "string",
                    "example": "São Paulo"
                },
                "estado": {
                    "type": "string",
                    "example": "SP"
                }
            }
        },
        "EnderecoCreate": {
            "type": "object",
            "required": [
                "rua",
                "numero",
                "cep",
                "cidade",
                "estado"
            ],
            "properties": {
                "rua": {
                    "type": "string",
                    "example": "av dos testes"
                },
                "numero": {
                    "type": "string",
                    "example": "151"
                },
                "complemento": {
                    "type": "string",
                    "example": "AP 21"
                },
                "bairro": {
                    "type": "string",
                    "example": "vela"
                },
                "cep": {
                    "type": "string",
                    "example": "01331010"
                },
                "cidade": {
                    "type": "string",
                    "example": "São Paulo"
                },
                "estado": {
                    "type": "string",
                    "example": "SP"
                }
            }
        }
    }
}